[
    {
        "difficulty_label": "Beginner",
        "provider_id": "5242fc36af1762274b68951f",
        "description": "<h2>How to launch, configure and access a Linux virtual machine using Amazon AWS</h2>\r\n<p><strong>Amazon EC2</strong> is the most famous AWS service and allows you to launch cloud instances of different types and pay them with a pay-per-use approach. It provides you with complete control of your computing resources and lets you run on Amazon&rsquo;s computing environment. Amazon EC2 reduces the time required to obtain and boot new server instances to minutes, allowing you to quickly scale capacity, both up and down, as your computing requirements change. Amazon EC2 allows you to set up and configure everything about your instances from your operating system up to your applications.</p>\r\n<p>By completing this hands-on lab, you will be able to launch and configure your first Amazon EC2 instance using AWS Management Console.</p>",
        "content_class": "lab",
        "url": "https://cloudacademy.com/amazon-web-services/labs/create-your-first-amazon-ec2-instance-1/",
        "slug": "create-your-first-amazon-ec2-instance",
        "provider": "AWS",
        "creation_date": "2014-12-22T15:43:31.253Z",
        "publish_date": "2015-05-21T17:39:35.989Z",
        "image": "https://cloudacademy.com/labs/media/labs/Create-your-first-Amazon-EC2-Instance-Linux.jpg",
        "authors": [
            "Antonio Angelino"
        ],
        "short_description": "<p>You will learn the steps to launch, configure and access a linux virtual machine using Amazon AWS.</p>",
        "title": "Create your first Amazon EC2 Instance (Linux)",
        "external_id": "lab-1",
        "id": 1,
        "tags": [
            "EC2",
            "Security Group"
        ]
    },
    {
        "difficulty_label": "Beginner",
        "provider_id": "5242fc36af1762274b68951f",
        "description": "<h2>How to create a customized OS image through an Amazon Machine Image (AMI)</h2>\r\n<p>An <strong>Amazon Machine Image (AMI)</strong> provides the information required to launch an EC2 instance.&nbsp;You can customize an EC2 instance and then save the configuration as a custom AMI for your private or public use. Every EC2 instance launched selecting the customized AMI will contain any software or file that you've previously added.</p>\r\n<p>During this lab experience you will setup a webserver EC2 instance starting from a standard Ubuntu AMI, and then generate a new AMI.</p>",
        "content_class": "lab",
        "url": "https://cloudacademy.com/amazon-web-services/labs/create-ebs-backed-linux-ami-7/",
        "slug": "create-ebs-backed-linux-ami",
        "provider": "AWS",
        "creation_date": "2014-12-22T15:43:31.253Z",
        "publish_date": "2015-05-21T17:41:31.105Z",
        "image": "https://cloudacademy.com/labs/media/labs/Create-an-EBS-Backed-Linux-AMI.jpg",
        "authors": [
            "Antonio Angelino"
        ],
        "short_description": "<p>You will learn how to create custom Amazon Machine Images (AMI) starting from a customized EC2 instance.</p>",
        "title": "Create an EBS-Backed Linux AMI",
        "external_id": "lab-7",
        "id": 7,
        "tags": [
            "EC2",
            "EBS",
            "AMI"
        ]
    }
]